.....
----------------------------------------------------------------------
Ran 5 tests in 0.002s

OK
Name               Stmts   Miss Branch BrPart  Cover   Missing
--------------------------------------------------------------
Diplomacy.py          74      0     44      0   100%
TestDiplomacy.py      31      0      0      0   100%
--------------------------------------------------------------
TOTAL                105      0     44      0   100%
